(kicad_symbol_lib (version 20200126) (host kicad_symbol_editor "(5.99.0-2260-g7201e9d7eb)")
  (symbol "upscale:MIC23451"
    (property "Reference" "U" (id 0) (at 0 5.08 0)
      (effects (font (size 1.27 1.27)))
    )
    (property "Value" "MIC23451" (id 1) (at 0 2.54 0)
      (effects (font (size 1.27 1.27)))
    )
    (property "Footprint" "" (id 2) (at 0 0 0)
      (effects (font (size 1.27 1.27)) hide)
    )
    (property "Datasheet" "https://ww1.microchip.com/downloads/en/DeviceDoc/MIC23451.pdf" (id 3) (at 0 0 0)
      (effects (font (size 1.27 1.27)) hide)
    )
    (property "DKPN" "576-4355-1-ND" (id 4) (at 0 0 0)
      (effects (font (size 1.27 1.27)) hide)
    )
    (symbol "MIC23451_0_1"
      (rectangle (start -7.62 -2.54) (end 7.62 -63.5)
        (stroke (width 0.0006)) (fill (type background))
      )
    )
    (symbol "MIC23451_0_0"
      (pin output line (at 10.16 -5.08 180) (length 2.54)
        (name "SW1" (effects (font (size 1.27 1.27))))
        (number "26" (effects (font (size 1.27 1.27))))
      )
      (pin output line (at 10.16 -30.48 180) (length 2.54)
        (name "SW2" (effects (font (size 1.27 1.27))))
        (number "4" (effects (font (size 1.27 1.27))))
      )
      (pin output line (at 10.16 -55.88 180) (length 2.54)
        (name "SW3" (effects (font (size 1.27 1.27))))
        (number "7" (effects (font (size 1.27 1.27))))
      )
      (pin input line (at -10.16 -25.4 0) (length 2.54)
        (name "EN1" (effects (font (size 1.27 1.27))))
        (number "21" (effects (font (size 1.27 1.27))))
      )
      (pin input line (at -10.16 -27.94 0) (length 2.54)
        (name "EN2" (effects (font (size 1.27 1.27))))
        (number "19" (effects (font (size 1.27 1.27))))
      )
      (pin input line (at -10.16 -30.48 0) (length 2.54)
        (name "EN3" (effects (font (size 1.27 1.27))))
        (number "15" (effects (font (size 1.27 1.27))))
      )
      (pin passive line (at 10.16 -7.62 180) (length 2.54)
        (name "SNS1" (effects (font (size 1.27 1.27))))
        (number "22" (effects (font (size 1.27 1.27))))
      )
      (pin passive line (at 10.16 -33.02 180) (length 2.54)
        (name "SNS2" (effects (font (size 1.27 1.27))))
        (number "18" (effects (font (size 1.27 1.27))))
      )
      (pin passive line (at 10.16 -58.42 180) (length 2.54)
        (name "SNS3" (effects (font (size 1.27 1.27))))
        (number "12" (effects (font (size 1.27 1.27))))
      )
      (pin passive line (at 10.16 -10.16 180) (length 2.54)
        (name "FB1" (effects (font (size 1.27 1.27))))
        (number "23" (effects (font (size 1.27 1.27))))
      )
      (pin passive line (at 10.16 -35.56 180) (length 2.54)
        (name "FB2" (effects (font (size 1.27 1.27))))
        (number "17" (effects (font (size 1.27 1.27))))
      )
      (pin passive line (at 10.16 -60.96 180) (length 2.54)
        (name "FB3" (effects (font (size 1.27 1.27))))
        (number "14" (effects (font (size 1.27 1.27))))
      )
      (pin open_collector line (at -10.16 -35.56 0) (length 2.54)
        (name "PG1" (effects (font (size 1.27 1.27))))
        (number "20" (effects (font (size 1.27 1.27))))
      )
      (pin open_collector line (at -10.16 -38.1 0) (length 2.54)
        (name "PG2" (effects (font (size 1.27 1.27))))
        (number "16" (effects (font (size 1.27 1.27))))
      )
      (pin open_collector line (at -10.16 -40.64 0) (length 2.54)
        (name "PG3" (effects (font (size 1.27 1.27))))
        (number "13" (effects (font (size 1.27 1.27))))
      )
      (pin power_in line (at -10.16 -45.72 0) (length 2.54)
        (name "AGND" (effects (font (size 1.27 1.27))))
        (number "EP1" (effects (font (size 1.27 1.27))))
      )
      (pin power_in line (at -10.16 -48.26 0) (length 2.54)
        (name "AGND" (effects (font (size 1.27 1.27))))
        (number "24" (effects (font (size 1.27 1.27))))
      )
      (pin power_in line (at -10.16 -50.8 0) (length 2.54)
        (name "AGND" (effects (font (size 1.27 1.27))))
        (number "11" (effects (font (size 1.27 1.27))))
      )
      (pin power_in line (at -10.16 -5.08 0) (length 2.54)
        (name "PVIN1" (effects (font (size 1.27 1.27))))
        (number "25" (effects (font (size 1.27 1.27))))
      )
      (pin power_in line (at -10.16 -7.62 0) (length 2.54)
        (name "PVIN2" (effects (font (size 1.27 1.27))))
        (number "5" (effects (font (size 1.27 1.27))))
      )
      (pin power_in line (at -10.16 -10.16 0) (length 2.54)
        (name "PVIN3" (effects (font (size 1.27 1.27))))
        (number "8" (effects (font (size 1.27 1.27))))
      )
      (pin power_in line (at -10.16 -12.7 0) (length 2.54)
        (name "AVIN1" (effects (font (size 1.27 1.27))))
        (number "3" (effects (font (size 1.27 1.27))))
      )
      (pin power_in line (at -10.16 -15.24 0) (length 2.54)
        (name "AVIN2" (effects (font (size 1.27 1.27))))
        (number "6" (effects (font (size 1.27 1.27))))
      )
      (pin power_in line (at -10.16 -17.78 0) (length 2.54)
        (name "AVIN3" (effects (font (size 1.27 1.27))))
        (number "9" (effects (font (size 1.27 1.27))))
      )
      (pin power_in line (at -10.16 -53.34 0) (length 2.54)
        (name "PGND" (effects (font (size 1.27 1.27))))
        (number "EP2" (effects (font (size 1.27 1.27))))
      )
      (pin power_in line (at -10.16 -55.88 0) (length 2.54)
        (name "PGND" (effects (font (size 1.27 1.27))))
        (number "10" (effects (font (size 1.27 1.27))))
      )
      (pin power_in line (at -10.16 -58.42 0) (length 2.54)
        (name "PGND" (effects (font (size 1.27 1.27))))
        (number "2" (effects (font (size 1.27 1.27))))
      )
      (pin power_in line (at -10.16 -60.96 0) (length 2.54)
        (name "PGND" (effects (font (size 1.27 1.27))))
        (number "1" (effects (font (size 1.27 1.27))))
      )
    )
  )
)
